{
  "implemented": true,
  "name": "Cyndaquil",
  "nationalPokedexNumber": 155,
  "primaryType": "fire",
  "abilities": [
    "blaze",
    "h:flashfire"
  ],
  "drops": {
    "amount": 1,
    "entries": [
      {
        "item": "cobblemon:charcoal_stick",
        "percentage": 5.0
      }
    ]
  },
  "features": ["region_bias"],
  "forms": [
    {
      "name": "Hisui Bias",
      "primaryType": "fire",
      "abilities": [
        "blaze",
        "h:flashfire"
      ],
      "drops": {
        "amount": 1,
        "entries": [
          {
            "item": "cobblemon:charcoal_stick",
            "percentage": 5.0
          }
        ]
      },
      "baseStats": {
        "hp": 39,
        "attack": 52,
        "defence": 43,
        "special_attack": 60,
        "special_defence": 50,
        "speed": 65
      },
      "catchRate": 45,
      "maleRatio": 0.875,
      "shoulderMountable": false,
      "baseExperienceYield": 62,
      "experienceGroup": "medium_slow",
      "eggCycles": 20,
      "eggGroups": [
        "field"
      ],
      "behaviour": {
        "resting": {
          "canSleep": true,
          "willSleepOnBed": true,
          "depth": "normal",
          "light": "0-4"
        },
        "moving": {
          "walk": {
            "walkSpeed": 0.2
          }
        }
      },
      "moves": [
        "1:leer",
        "1:tackle",
        "6:smokescreen",
        "10:ember",
        "13:quickattack",
        "19:flamewheel",
        "22:defensecurl",
        "28:flamecharge",
        "31:swift",
        "37:lavaplume",
        "40:flamethrower",
        "46:inferno",
        "49:rollout",
        "55:doubleedge",
        "58:burnup",
        "58:overheat",
        "64:eruption",
        "egg:covet",
        "egg:crushclaw",
        "egg:curse",
        "egg:doubleedge",
        "egg:doublekick",
        "egg:extrasensory",
        "egg:flameburst",
        "egg:flareblitz",
        "egg:foresight",
        "egg:furyswipes",
        "egg:howl",
        "egg:naturepower",
        "egg:quickattack",
        "egg:reversal",
        "egg:thrash",
        "tm:aerialace",
        "tm:attract",
        "tm:bodyslam",
        "tm:burningjealousy",
        "tm:captivate",
        "tm:confide",
        "tm:curse",
        "tm:cut",
        "tm:dig",
        "tm:doubleedge",
        "tm:doubleteam",
        "tm:endure",
        "tm:facade",
        "tm:fireblast",
        "tm:firefang",
        "tm:firepledge",
        "tm:firespin",
        "tm:flamecharge",
        "tm:flamethrower",
        "tm:flareblitz",
        "tm:frustration",
        "tm:heatwave",
        "tm:hiddenpower",
        "tm:incinerate",
        "tm:ironhead",
        "tm:naturalgift",
        "tm:naturepower",
        "tm:overheat",
        "tm:playrough",
        "tm:protect",
        "tm:rest",
        "tm:return",
        "tm:reversal",
        "tm:roar",
        "tm:round",
        "tm:secretpower",
        "tm:sleeptalk",
        "tm:substitute",
        "tm:sunnyday",
        "tm:swagger",
        "tm:swift",
        "tm:takedown",
        "tm:temperflare",
        "tm:terablast",
        "tm:toxic",
        "tm:wildcharge",
        "tm:willowisp",
        "tm:workup",
        "tm:zenheadbutt",
        "tutor:attract",
        "tutor:blastburn",
        "tutor:bodyslam",
        "tutor:covet",
        "tutor:curse",
        "tutor:cut",
        "tutor:defensecurl",
        "tutor:detect",
        "tutor:dig",
        "tutor:doubleedge",
        "tutor:doubleteam",
        "tutor:ember",
        "tutor:endure",
        "tutor:fireblast",
        "tutor:firepledge",
        "tutor:flamethrower",
        "tutor:flamewheel",
        "tutor:foresight",
        "tutor:frustration",
        "tutor:furyswipes",
        "tutor:headbutt",
        "tutor:heatwave",
        "tutor:hiddenpower",
        "tutor:irontail",
        "tutor:leer",
        "tutor:mimic",
        "tutor:mudslap",
        "tutor:protect",
        "tutor:quickattack",
        "tutor:rest",
        "tutor:return",
        "tutor:reversal",
        "tutor:rollout",
        "tutor:sleeptalk",
        "tutor:smokescreen",
        "tutor:snore",
        "tutor:submission",
        "tutor:substitute",
        "tutor:sunnyday",
        "tutor:swagger",
        "tutor:swift",
        "tutor:tackle",
        "tutor:thrash",
        "tutor:toxic"
      ],
      "labels": [
        "gen2",
        "hisui_regional"
      ],
      "evolutions": [
        {
          "id": "hisui_cyndaquil_hisui_quilava",
          "variant": "level_up",
          "result": "quilava region_bias=hisui",
          "consumeHeldItem": false,
          "learnableMoves": [],
          "requirements": [
            {
              "variant": "level",
              "minLevel": 14
            }
          ]
        },
        {
          "id": "hisui_cyndaquil_quilava",
          "variant": "level_up",
          "result": "quilava",
          "consumeHeldItem": false,
          "learnableMoves": [],
          "requirements": [
            {
              "variant": "level",
              "minLevel": 14
            },
            {
              "variant": "biome",
              "biomeCondition": "#cobblemon:is_temperate"
            },
            {
              "variant": "biome",
              "biomeAnticondition": "#cobblemon:is_spooky"
            }
          ]
        }
      ],
      "baseScale": 0.5,
      "hitbox": {
        "width": 0.8,
        "height": 1.15,
        "fixed": false
      },
      "baseFriendship": 70,
      "evYield": {
        "hp": 0,
        "attack": 0,
        "defence": 0,
        "special_attack": 0,
        "special_defence": 0,
        "speed": 1
      },
      "height": 5,
      "weight": 79,
      "aspects": ["region-bias-hisui"],
      "cannotDynamax": false
    }
  ],
  "baseStats": {
    "hp": 39,
    "attack": 52,
    "defence": 43,
    "special_attack": 60,
    "special_defence": 50,
    "speed": 65
  },
  "catchRate": 45,
  "maleRatio": 0.875,
  "shoulderMountable": false,
  "baseExperienceYield": 62,
  "experienceGroup": "medium_slow",
  "eggCycles": 20,
  "eggGroups": [
    "field"
  ],
  "behaviour": {
    "resting": {
      "canSleep": true,
      "willSleepOnBed": true,
      "depth": "normal",
      "light": "0-4"
    },
    "moving": {
      "walk": {
        "walkSpeed": 0.2
      }
    }
  },
  "moves": [
    "1:leer",
    "1:tackle",
    "6:smokescreen",
    "10:ember",
    "13:quickattack",
    "19:flamewheel",
    "22:defensecurl",
    "28:flamecharge",
    "31:swift",
    "37:lavaplume",
    "40:flamethrower",
    "46:inferno",
    "49:rollout",
    "55:doubleedge",
    "58:burnup",
    "58:overheat",
    "64:eruption",
    "egg:covet",
    "egg:crushclaw",
    "egg:curse",
    "egg:doubleedge",
    "egg:doublekick",
    "egg:extrasensory",
    "egg:flameburst",
    "egg:flareblitz",
    "egg:foresight",
    "egg:furyswipes",
    "egg:howl",
    "egg:naturepower",
    "egg:quickattack",
    "egg:reversal",
    "egg:thrash",
    "tm:aerialace",
    "tm:attract",
    "tm:bodyslam",
    "tm:burningjealousy",
    "tm:captivate",
    "tm:confide",
    "tm:curse",
    "tm:cut",
    "tm:dig",
    "tm:doubleedge",
    "tm:doubleteam",
    "tm:endure",
    "tm:facade",
    "tm:fireblast",
    "tm:firefang",
    "tm:firepledge",
    "tm:firespin",
    "tm:flamecharge",
    "tm:flamethrower",
    "tm:flareblitz",
    "tm:frustration",
    "tm:heatwave",
    "tm:hiddenpower",
    "tm:incinerate",
    "tm:ironhead",
    "tm:naturalgift",
    "tm:naturepower",
    "tm:overheat",
    "tm:playrough",
    "tm:protect",
    "tm:rest",
    "tm:return",
    "tm:reversal",
    "tm:roar",
    "tm:round",
    "tm:secretpower",
    "tm:sleeptalk",
    "tm:substitute",
    "tm:sunnyday",
    "tm:swagger",
    "tm:swift",
    "tm:takedown",
    "tm:temperflare",
    "tm:terablast",
    "tm:toxic",
    "tm:wildcharge",
    "tm:willowisp",
    "tm:workup",
    "tm:zenheadbutt",
    "tutor:attract",
    "tutor:blastburn",
    "tutor:bodyslam",
    "tutor:covet",
    "tutor:curse",
    "tutor:cut",
    "tutor:defensecurl",
    "tutor:detect",
    "tutor:dig",
    "tutor:doubleedge",
    "tutor:doubleteam",
    "tutor:ember",
    "tutor:endure",
    "tutor:fireblast",
    "tutor:firepledge",
    "tutor:flamethrower",
    "tutor:flamewheel",
    "tutor:foresight",
    "tutor:frustration",
    "tutor:furyswipes",
    "tutor:headbutt",
    "tutor:heatwave",
    "tutor:hiddenpower",
    "tutor:irontail",
    "tutor:leer",
    "tutor:mimic",
    "tutor:mudslap",
    "tutor:protect",
    "tutor:quickattack",
    "tutor:rest",
    "tutor:return",
    "tutor:reversal",
    "tutor:rollout",
    "tutor:sleeptalk",
    "tutor:smokescreen",
    "tutor:snore",
    "tutor:submission",
    "tutor:substitute",
    "tutor:sunnyday",
    "tutor:swagger",
    "tutor:swift",
    "tutor:tackle",
    "tutor:thrash",
    "tutor:toxic"
  ],
  "labels": [
    "gen2"
  ],
  "pokedex": [
    "cobblemon.species.cyndaquil.desc"
  ],
  "evolutions": [
    {
      "id": "cyndaquil_quilava",
      "variant": "level_up",
      "result": "quilava",
      "consumeHeldItem": false,
      "learnableMoves": [],
      "requirements": [
        {
          "variant": "level",
          "minLevel": 14
        }
      ]
    },
    {
      "id": "cyndaquil_hisui_quilava",
      "variant": "level_up",
      "result": "quilava region_bias=hisui",
      "consumeHeldItem": false,
      "learnableMoves": [],
      "requirements": [
        {
          "variant": "level",
          "minLevel": 14
        },
        {
          "variant": "biome",
          "biomeCondition": "#cobblemon:is_taiga"
        },
        {
          "variant": "biome",
          "biomeCondition": "#cobblemon:nether/is_crimson"
        },
        {
          "variant": "biome",
          "biomeCondition": "#cobblemon:nether/is_forest"
        },
        {
          "variant": "biome",
          "biomeCondition": "#cobblemon:nether/is_overgrowth"
        }
      ]
    }
  ],
  "baseScale": 0.5,
  "hitbox": {
    "width": 0.8,
    "height": 1.15,
    "fixed": false
  },
  "baseFriendship": 70,
  "evYield": {
    "hp": 0,
    "attack": 0,
    "defence": 0,
    "special_attack": 0,
    "special_defence": 0,
    "speed": 1
  },
  "height": 5,
  "weight": 79,
  "aspects": [],
  "cannotDynamax": false
}