{
  "name": "Mienshao",
  "nationalPokedexNumber": 620,
  "primaryType": "fighting",
  "abilities": [
    "innerfocus",
    "regenerator",
    "h:reckless"
  ],
  "drops": {
    "amount": 2,
    "entries": [
      {
        "item": "cobblemon:payapa_berry",
        "percentage": 5.0
      },
      {
        "item": "cobblemon:expert_belt",
        "percentage": 5.0
      }
    ]
  },
  "baseStats": {
    "hp": 65,
    "attack": 125,
    "defence": 60,
    "special_attack": 95,
    "special_defence": 60,
    "speed": 105
  },
  "catchRate": 45,
  "maleRatio": 0.5,
  "shoulderMountable": false,
  "baseExperienceYield": 179,
  "experienceGroup": "medium_slow",
  "eggCycles": 25,
  "eggGroups": [
    "field",
    "human_like"
  ],
  "moves": [
    "1:detect",
    "1:fakeout",
    "1:meditate",
    "1:pound",
    "1:quickguard",
    "1:reversal",
    "15:furyswipes",
    "17:doubleslap",
    "20:wideguard",
    "21:swift",
    "25:forcepalm",
    "30:uturn",
    "35:drainpunch",
    "37:jumpkick",
    "40:honeclaws",
    "45:aurasphere",
    "53:bounce",
    "59:calmmind",
    "66:highjumpkick",
    "tm:acrobatics",
    "tm:aerialace",
    "tm:agility",
    "tm:allyswitch",
    "tm:assurance",
    "tm:attract",
    "tm:aurasphere",
    "tm:batonpass",
    "tm:blazekick",
    "tm:bounce",
    "tm:brickbreak",
    "tm:brutalswing",
    "tm:bulkup",
    "tm:calmmind",
    "tm:closecombat",
    "tm:coaching",
    "tm:confide",
    "tm:dig",
    "tm:doubleedge",
    "tm:doubleteam",
    "tm:drainpunch",
    "tm:endure",
    "tm:facade",
    "tm:fling",
    "tm:focusblast",
    "tm:focusenergy",
    "tm:focuspunch",
    "tm:frustration",
    "tm:gigaimpact",
    "tm:grassknot",
    "tm:helpinghand",
    "tm:hiddenpower",
    "tm:hyperbeam",
    "tm:icespinner",
    "tm:knockoff",
    "tm:lowkick",
    "tm:lowsweep",
    "tm:megakick",
    "tm:megapunch",
    "tm:payback",
    "tm:poisonjab",
    "tm:poweruppunch",
    "tm:protect",
    "tm:psychup",
    "tm:raindance",
    "tm:reflect",
    "tm:rest",
    "tm:retaliate",
    "tm:return",
    "tm:revenge",
    "tm:reversal",
    "tm:rockslide",
    "tm:rocksmash",
    "tm:rocktomb",
    "tm:round",
    "tm:secretpower",
    "tm:sleeptalk",
    "tm:snore",
    "tm:stoneedge",
    "tm:strength",
    "tm:substitute",
    "tm:sunnyday",
    "tm:swagger",
    "tm:swift",
    "tm:swordsdance",
    "tm:takedown",
    "tm:taunt",
    "tm:terablast",
    "tm:toxic",
    "tm:trailblaze",
    "tm:tripleaxel",
    "tm:upperhand",
    "tm:uturn",
    "tm:vacuumwave",
    "tm:workup",
    "tutor:allyswitch",
    "tutor:bounce",
    "tutor:coaching",
    "tutor:drainpunch",
    "tutor:dualchop",
    "tutor:fakeout",
    "tutor:focuspunch",
    "tutor:helpinghand",
    "tutor:highjumpkick",
    "tutor:knockoff",
    "tutor:laserfocus",
    "tutor:lowkick",
    "tutor:roleplay",
    "tutor:sleeptalk",
    "tutor:snore",
    "tutor:uturn"
  ],
  "labels": [
    "gen5"
  ],
  "pokedex": [
    "cobblemon.species.mienshao.desc"
  ],
  "preEvolution": "mienfoo",
  "evolutions": [],
  "baseScale": 1,
  "hitbox": {
    "width": 1,
    "height": 1,
    "fixed": false
  },
  "baseFriendship": 50,
  "evYield": {
    "hp": 0,
    "attack": 2,
    "defence": 0,
    "special_attack": 0,
    "special_defence": 0,
    "speed": 0
  },
  "height": 14,
  "weight": 355,
  "aspects": [],
  "cannotDynamax": false
}