{
  "implemented": true,
  "name": "Zorua",
  "nationalPokedexNumber": 570,
  "primaryType": "dark",
  "abilities": [
    "illusion"
  ],
  "drops": {
    "amount": 4,
    "entries": [
      {
        "item": "minecraft:sweet_berries",
        "quantityRange": "1-3"
      },
      {
        "item": "cobblemon:roseli_berry",
        "percentage": 2.5
      }
    ]
  },
  "baseStats": {
    "hp": 40,
    "attack": 65,
    "defence": 40,
    "special_attack": 80,
    "special_defence": 40,
    "speed": 65
  },
  "features": [
    "hisuian"
  ],
  "catchRate": 75,
  "maleRatio": 0.875,
  "shoulderMountable": false,
  "forms": [
    {
      "name": "Hisui",
      "primaryType": "normal",
      "secondaryType": "ghost",
      "abilities": [
        "illusion"
      ],
      "baseStats": {
        "hp": 35,
        "attack": 60,
        "defence": 40,
        "special_attack": 85,
        "special_defence": 40,
        "speed": 70
      },
      "catchRate": 75,
      "maleRatio": 0.875,
      "baseExperienceYield": 66,
      "baseFriendship": 50,
      "evYield": {
        "hp": 0,
        "attack": 0,
        "defence": 0,
        "special_attack": 1,
        "special_defence": 0,
        "speed": 0
      },
      "experienceGroup": "medium_slow",
      "eggCycles": 25,
      "eggGroups": [
        "field"
      ],
      "moves": [
        "1:leer",
        "1:scratch",
        "4:torment",
        "8:honeclaws",
        "12:shadowsneak",
        "16:curse",
        "20:taunt",
        "24:knockoff",
        "28:spite",
        "32:agility",
        "36:shadowball",
        "40:bittermalice",
        "44:nastyplot",
        "48:foulplay",
        "egg:comeuppance",
        "egg:detect",
        "egg:extrasensory",
        "egg:memento",
        "tm:agility",
        "tm:calmmind",
        "tm:confuseray",
        "tm:darkpulse",
        "tm:dig",
        "tm:endure",
        "tm:facade",
        "tm:faketears",
        "tm:fling",
        "tm:foulplay",
        "tm:gigaimpact",
        "tm:hex",
        "tm:hyperbeam",
        "tm:icywind",
        "tm:imprison",
        "tm:nastyplot",
        "tm:nightshade",
        "tm:phantomforce",
        "tm:protect",
        "tm:raindance",
        "tm:rest",
        "tm:shadowball",
        "tm:shadowclaw",
        "tm:sleeptalk",
        "tm:sludgebomb",
        "tm:snarl",
        "tm:snowscape",
        "tm:substitute",
        "tm:swift",
        "tm:takedown",
        "tm:taunt",
        "tm:terablast",
        "tm:thief",
        "tm:trick",
        "tm:uturn",
        "tm:willowisp"
      ],
      "labels": [
        "gen8",
        "hisui_regional"
      ],
      "aspects": [
        "hisuian"
      ],
      "height": 7,
      "weight": 125,
      "evolutions": [
        {
          "id": "zorua_zoroark",
          "variant": "level_up",
          "result": "zoroark hisuian",
          "consumeHeldItem": false,
          "learnableMoves": [
            "shadowclaw"
          ],
          "requirements": [
            {
              "variant": "level",
              "minLevel": 30
            }
          ]
        }
      ],
      "cannotDynamax": false,
      "battleOnly": false,
      "drops": {
        "amount": 4,
        "entries": [
          {
            "item": "minecraft:sweet_berries",
            "quantityRange": "1-3"
          },
          {
            "item": "cobblemon:colbur_berry",
            "percentage": 2.5
          }
        ]
      }
    }
  ],
  "baseExperienceYield": 66,
  "experienceGroup": "medium_slow",
  "eggCycles": 25,
  "eggGroups": [
    "field"
  ],
  "moves": [
    "1:leer",
    "1:scratch",
    "4:torment",
    "5:pursuit",
    "8:honeclaws",
    "12:furyswipes",
    "16:scaryface",
    "17:feintattack",
    "20:taunt",
    "24:knockoff",
    "28:faketears",
    "32:agility",
    "36:imprison",
    "40:nightdaze",
    "41:embargo",
    "44:nastyplot",
    "45:punishment",
    "48:foulplay",
    "egg:captivate",
    "egg:copycat",
    "egg:counter",
    "egg:darkpulse",
    "egg:detect",
    "egg:extrasensory",
    "egg:memento",
    "egg:snatch",
    "egg:suckerpunch",
    "tm:aerialace",
    "tm:agility",
    "tm:assurance",
    "tm:attract",
    "tm:bounce",
    "tm:calmmind",
    "tm:confide",
    "tm:confuseray",
    "tm:cut",
    "tm:darkpulse",
    "tm:dig",
    "tm:doubleteam",
    "tm:embargo",
    "tm:encore",
    "tm:endure",
    "tm:facade",
    "tm:faketears",
    "tm:fling",
    "tm:foulplay",
    "tm:frustration",
    "tm:grassknot",
    "tm:helpinghand",
    "tm:hex",
    "tm:hiddenpower",
    "tm:honeclaws",
    "tm:hypervoice",
    "tm:imprison",
    "tm:incinerate",
    "tm:nastyplot",
    "tm:nightshade",
    "tm:payback",
    "tm:protect",
    "tm:psychup",
    "tm:raindance",
    "tm:rest",
    "tm:retaliate",
    "tm:return",
    "tm:revenge",
    "tm:roar",
    "tm:round",
    "tm:scaryface",
    "tm:secretpower",
    "tm:shadowball",
    "tm:shadowclaw",
    "tm:sleeptalk",
    "tm:sludgebomb",
    "tm:snarl",
    "tm:snore",
    "tm:substitute",
    "tm:sunnyday",
    "tm:swagger",
    "tm:swift",
    "tm:swordsdance",
    "tm:takedown",
    "tm:taunt",
    "tm:terablast",
    "tm:thief",
    "tm:torment",
    "tm:toxic",
    "tm:trick",
    "tm:uproar",
    "tm:uturn",
    "tutor:bounce",
    "tutor:burningjealousy",
    "tutor:covet",
    "tutor:darkpulse",
    "tutor:foulplay",
    "tutor:hypervoice",
    "tutor:knockoff",
    "tutor:lashout",
    "tutor:skittersmack",
    "tutor:sleeptalk",
    "tutor:snatch",
    "tutor:snore",
    "tutor:spite",
    "tutor:trick",
    "tutor:uproar"
  ],
  "labels": [
    "gen5",
    "unova_regional"
  ],
  "pokedex": [
    "cobblemon.species.zorua.desc"
  ],
  "evolutions": [
    {
      "id": "zorua_zoroark",
      "variant": "level_up",
      "result": "zoroark",
      "consumeHeldItem": false,
      "learnableMoves": [
        "nightslash"
      ],
      "requirements": [
        {
          "variant": "level",
          "minLevel": 30
        }
      ]
    }
  ],
  "baseScale": 0.75,
  "hitbox": {
    "width": 0.6,
    "height": 1,
    "fixed": false
  },
  "baseFriendship": 50,
  "evYield": {
    "hp": 0,
    "attack": 0,
    "defence": 0,
    "special_attack": 1,
    "special_defence": 0,
    "speed": 0
  },
  "height": 7,
  "weight": 125,
  "aspects": [],
  "cannotDynamax": false
}