{
	"format_version": "1.8.0",
	"animations": {
		"animation.qwilfish.ground_idle": {
			"loop": true,
			"bones": {
				"qwilfish": {
					"rotation": [
						0,
						0,
						0
					],
					"position": [
						0,
						2,
						0
					]
				},
				"body": {
					"rotation": [
						0,
						0,
						0
					]
				}
			}
		},
		"animation.qwilfish.blink": {
			"animation_length": 0.1667,
			"bones": {
				"eyelid_left": {
					"position": [
						0,
						0,
						-0.1
					]
				},
				"eyelid_right": {
					"position": [
						0,
						0,
						-0.1
					]
				}
			}
		}
	}
}