{
  "implemented": true,
  "name": "Cufant",
  "nationalPokedexNumber": 878,
  "primaryType": "steel",
  "abilities": [
    "sheerforce",
    "h:heavymetal"
  ],
  "baseStats": {
    "hp": 72,
    "attack": 80,
    "defence": 49,
    "special_attack": 40,
    "special_defence": 49,
    "speed": 40
  },
  "behaviour": {
    "resting": {
      "canSleep": true,
      "depth": "normal",
      "light": "0-4"
    },
    "moving": {
      "walk": {
        "walkSpeed": 0.12
      }
    }
  },
  "catchRate": 190,
  "maleRatio": 0.5,
  "shoulderMountable": false,
  "baseExperienceYield": 66,
  "experienceGroup": "medium_fast",
  "eggCycles": 25,
  "eggGroups": [
    "field",
    "mineral"
  ],
  "moves": [
    "1:growl",
    "1:tackle",
    "5:rollout",
    "10:rocksmash",
    "15:bulldoze",
    "20:stomp",
    "25:irondefense",
    "30:dig",
    "35:strength",
    "40:ironhead",
    "45:playrough",
    "50:highhorsepower",
    "55:superpower",
    "egg:belch",
    "egg:curse",
    "egg:defensecurl",
    "egg:doubleedge",
    "egg:fissure",
    "egg:slam",
    "egg:swagger",
    "egg:whirlwind",
    "tm:attract",
    "tm:bodypress",
    "tm:bodyslam",
    "tm:brickbreak",
    "tm:brutalswing",
    "tm:bulldoze",
    "tm:curse",
    "tm:dig",
    "tm:doubleedge",
    "tm:earthpower",
    "tm:earthquake",
    "tm:endeavor",
    "tm:endure",
    "tm:facade",
    "tm:flashcannon",
    "tm:fling",
    "tm:heavyslam",
    "tm:highhorsepower",
    "tm:irondefense",
    "tm:ironhead",
    "tm:megakick",
    "tm:mudshot",
    "tm:playrough",
    "tm:powerwhip",
    "tm:protect",
    "tm:rest",
    "tm:rockblast",
    "tm:rockslide",
    "tm:rocktomb",
    "tm:round",
    "tm:sandstorm",
    "tm:screech",
    "tm:sleeptalk",
    "tm:snore",
    "tm:stealthrock",
    "tm:steelbeam",
    "tm:stompingtantrum",
    "tm:stoneedge",
    "tm:substitute",
    "tm:superpower",
    "tm:takedown",
    "tm:terablast",
    "tm:workup",
    "tm:zenheadbutt",
    "tutor:steelbeam",
    "tutor:steelroller"
  ],
  "labels": [
    "gen8"
  ],
  "pokedex": [
    "cobblemon.species.cufant.desc"
  ],
  "evolutions": [
    {
      "id": "cufant_copperajah",
      "variant": "level_up",
      "result": "copperajah",
      "consumeHeldItem": false,
      "learnableMoves": [
        "heavyslam"
      ],
      "requirements": [
        {
          "variant": "level",
          "minLevel": 34
        }
      ]
    }
  ],
  "baseScale": 1,
  "hitbox": {
    "width": 1.15,
    "height": 1.4,
    "fixed": false
  },
  "baseFriendship": 50,
  "evYield": {
    "hp": 0,
    "attack": 1,
    "defence": 0,
    "special_attack": 0,
    "special_defence": 0,
    "speed": 0
  },
  "height": 12,
  "weight": 1000,
  "aspects": [],
  "cannotDynamax": false,
  "drops": {
    "amount": 2,
    "entries": [
      {
        "item": "minecraft:raw_copper",
        "quantityRange": "0-1"
      },
      {
        "item": "cobblemon:nanab_berry",
        "percentage": 2.5
      }
    ]
  }
}