{
  "name": "Zacian",
  "nationalPokedexNumber": 888,
  "primaryType": "fairy",
  "abilities": [
    "intrepidsword"
  ],
  "baseStats": {
    "hp": 92,
    "attack": 120,
    "defence": 115,
    "special_attack": 80,
    "special_defence": 115,
    "speed": 138
  },
  "catchRate": 10,
  "maleRatio": -1,
  "shoulderMountable": false,
  "forms": [
    {
      "name": "Crowned",
      "primaryType": "fairy",
      "secondaryType": "steel",
      "abilities": [
        "intrepidsword"
      ],
      "baseStats": {
        "hp": 92,
        "attack": 150,
        "defence": 115,
        "special_attack": 80,
        "special_defence": 115,
        "speed": 148
      },
      "catchRate": 10,
      "maleRatio": -1,
      "baseExperienceYield": 335,
      "baseFriendship": 0,
      "evYield": {
        "hp": 0,
        "attack": 0,
        "defence": 0,
        "special_attack": 0,
        "special_defence": 0,
        "speed": 3
      },
      "experienceGroup": "slow",
      "eggCycles": 120,
      "eggGroups": [
        "undiscovered"
      ],
      "moves": [
        "form_change:behemothblade"
      ],
      "labels": [
        "gen8",
        "legendary"
      ],
      "aspects": [
        "crowned"
      ],
      "height": 28,
      "weight": 3550,
      "cannotDynamax": true,
      "battleOnly": true,
      "drops": {
        "amount": 1,
        "entries": [
          {
            "item": "minecraft:diamond_sword"
          }
        ]
      }
    }
  ],
  "baseExperienceYield": 335,
  "experienceGroup": "slow",
  "eggCycles": 120,
  "eggGroups": [
    "undiscovered"
  ],
  "moves": [
    "1:bite",
    "1:howl",
    "1:metalclaw",
    "1:quickattack",
    "1:quickguard",
    "1:sacredsword",
    "11:slash",
    "22:swordsdance",
    "33:ironhead",
    "44:laserfocus",
    "44:nobleroar",
    "55:crunch",
    "66:moonblast",
    "77:closecombat",
    "88:gigaimpact",
    "tm:agility",
    "tm:airslash",
    "tm:assurance",
    "tm:bodyslam",
    "tm:brickbreak",
    "tm:brutalswing",
    "tm:closecombat",
    "tm:crunch",
    "tm:dazzlinggleam",
    "tm:dig",
    "tm:endure",
    "tm:facade",
    "tm:falseswipe",
    "tm:firefang",
    "tm:flashcannon",
    "tm:focusblast",
    "tm:focusenergy",
    "tm:gigaimpact",
    "tm:helpinghand",
    "tm:hyperbeam",
    "tm:hypervoice",
    "tm:icefang",
    "tm:imprison",
    "tm:irondefense",
    "tm:ironhead",
    "tm:irontail",
    "tm:metalclaw",
    "tm:mistyterrain",
    "tm:playrough",
    "tm:poisonjab",
    "tm:protect",
    "tm:psychicfangs",
    "tm:psychocut",
    "tm:rest",
    "tm:retaliate",
    "tm:revenge",
    "tm:reversal",
    "tm:round",
    "tm:scaryface",
    "tm:sleeptalk",
    "tm:snarl",
    "tm:snore",
    "tm:solarblade",
    "tm:steelbeam",
    "tm:substitute",
    "tm:swift",
    "tm:swordsdance",
    "tm:tailslap",
    "tm:takedown",
    "tm:terablast",
    "tm:thunderfang",
    "tm:trailblaze",
    "tm:wildcharge",
    "tm:workup",
    "tutor:crunch",
    "tutor:ironhead",
    "tutor:playrough",
    "tutor:sacredsword",
    "tutor:steelbeam",
    "tutor:swordsdance"
  ],
  "labels": [
    "gen8",
    "legendary"
  ],
  "pokedex": [
    "cobblemon.species.zacian.desc"
  ],
  "evolutions": [],
  "baseScale": 1,
  "hitbox": {
    "width": 1,
    "height": 1,
    "fixed": false
  },
  "baseFriendship": 0,
  "evYield": {
    "hp": 0,
    "attack": 0,
    "defence": 0,
    "special_attack": 0,
    "special_defence": 0,
    "speed": 3
  },
  "height": 28,
  "weight": 1100,
  "dynamaxBlocked": true,
  "aspects": [],
  "cannotDynamax": true
}