{
    "enabled": true,
    "neededInstalledMods": [],
    "neededUninstalledMods": [],
    "spawns": [
        {
            "id": "vespiquen-1",
            "pokemon": "vespiquen",
            "presets": [
                "natural"
            ],
            "type": "pokemon",
            "context": "grounded",
            "bucket": "common",
            "level": "21-47",
            "weight": 0.02,
            "weightMultiplier": {
                "multiplier": 25.0,
                "condition": {
                    "neededNearbyBlocks": [
                        "#minecraft:beehives"
                    ]
                }
            },
            "condition": {
                "minSkyLight": 8,
                "maxSkyLight": 15,
                "biomes": [
                    "#cobblemon:is_temperate"
                ],
                "timeRange": "day",
                "isRaining": false
            },
            "anticondition": {
                "biomes": [
                    "#cobblemon:is_freezing",
                    "#cobblemon:is_spooky"
                ]
            }
        },
        {
            "id": "vespiquen-2",
            "pokemon": "vespiquen",
            "type": "pokemon",
            "context": "grounded",
            "bucket": "common",
            "level": "21-47",
            "weight": 1.0,
            "condition": {
                "biomes": [
                    "#the_bumblezone:the_bumblezone"
                ]
            },
            "anticondition": {
                "structures": [
                    "#the_bumblezone:sempiternal_sanctums"
                ]
            }
        }
    ]
}