{
  "implemented": true,
  "name": "Oddish",
  "nationalPokedexNumber": 43,
  "primaryType": "grass",
  "secondaryType": "poison",
  "abilities": [
    "chlorophyll",
    "h:runaway"
  ],
  "drops": {
    "amount": 2,
    "entries": [
      {
        "item": "cobblemon:absorb_bulb",
        "percentage": 2.5
      },
      {
        "item": "cobblemon:pecha_berry",
        "percentage": 2.5
      }
    ]
  },
  "baseStats": {
    "hp": 45,
    "attack": 50,
    "defence": 55,
    "special_attack": 75,
    "special_defence": 65,
    "speed": 30
  },
  "behaviour": {
    "resting": {
      "canSleep": true,
      "willSleepOnBed": false,
      "depth": "normal",
      "light": "0-4"
    }
  },
  "catchRate": 255,
  "maleRatio": 0.5,
  "shoulderMountable": false,
  "features": [
    "valencian"
  ],
  "baseExperienceYield": 64,
  "experienceGroup": "medium_slow",
  "eggCycles": 20,
  "eggGroups": [
    "grass"
  ],
  "moves": [
    "1:absorb",
    "1:growth",
    "4:acid",
    "8:sweetscent",
    "12:megadrain",
    "14:poisonpowder",
    "16:stunspore",
    "18:sleeppowder",
    "20:gigadrain",
    "23:luckychant",
    "24:toxic",
    "28:moonblast",
    "32:grassyterrain",
    "36:moonlight",
    "39:naturalgift",
    "40:petaldance",
    "egg:afteryou",
    "egg:charm",
    "egg:flail",
    "egg:ingrain",
    "egg:leechseed",
    "egg:naturepower",
    "egg:razorleaf",
    "egg:secretpower",
    "egg:strengthsap",
    "egg:swordsdance",
    "egg:synthesis",
    "egg:teeterdance",
    "egg:tickle",
    "tm:acidspray",
    "tm:attract",
    "tm:bulletseed",
    "tm:captivate",
    "tm:charm",
    "tm:confide",
    "tm:cut",
    "tm:dazzlinggleam",
    "tm:doubleteam",
    "tm:endure",
    "tm:energyball",
    "tm:facade",
    "tm:flash",
    "tm:frustration",
    "tm:gigadrain",
    "tm:grassknot",
    "tm:grassyglide",
    "tm:grassyterrain",
    "tm:helpinghand",
    "tm:hiddenpower",
    "tm:infestation",
    "tm:leafstorm",
    "tm:magicalleaf",
    "tm:naturalgift",
    "tm:naturepower",
    "tm:protect",
    "tm:rest",
    "tm:return",
    "tm:round",
    "tm:secretpower",
    "tm:seedbomb",
    "tm:sleeptalk",
    "tm:sludgebomb",
    "tm:snore",
    "tm:solarbeam",
    "tm:substitute",
    "tm:sunnyday",
    "tm:swagger",
    "tm:swordsdance",
    "tm:terablast",
    "tm:toxic",
    "tm:trailblaze",
    "tm:venoshock",
    "tutor:absorb",
    "tutor:acid",
    "tutor:afteryou",
    "tutor:attract",
    "tutor:bide",
    "tutor:curse",
    "tutor:cut",
    "tutor:dazzlinggleam",
    "tutor:doubleedge",
    "tutor:doubleteam",
    "tutor:endure",
    "tutor:facade",
    "tutor:flail",
    "tutor:flash",
    "tutor:frustration",
    "tutor:gastroacid",
    "tutor:gigadrain",
    "tutor:grassyglide",
    "tutor:growth",
    "tutor:headbutt",
    "tutor:hiddenpower",
    "tutor:leechseed",
    "tutor:megadrain",
    "tutor:mimic",
    "tutor:moonblast",
    "tutor:moonlight",
    "tutor:petaldance",
    "tutor:poisonpowder",
    "tutor:protect",
    "tutor:rage",
    "tutor:razorleaf",
    "tutor:reflect",
    "tutor:rest",
    "tutor:return",
    "tutor:seedbomb",
    "tutor:sleeppowder",
    "tutor:sleeptalk",
    "tutor:sludgebomb",
    "tutor:snore",
    "tutor:solarbeam",
    "tutor:stunspore",
    "tutor:substitute",
    "tutor:sunnyday",
    "tutor:swagger",
    "tutor:sweetscent",
    "tutor:swordsdance",
    "tutor:synthesis",
    "tutor:takedown",
    "tutor:teeterdance",
    "tutor:toxic",
    "tutor:worryseed"
  ],
  "labels": [
    "gen1"
  ],
  "pokedex": [
    "cobblemon.species.oddish.desc"
  ],
  "evolutions": [
    {
      "id": "oddish_gloom",
      "variant": "level_up",
      "result": "gloom",
      "consumeHeldItem": false,
      "learnableMoves": [],
      "requirements": [
        {
          "variant": "level",
          "minLevel": 21
        }
      ]
    }
  ],
  "baseScale": 0.7,
  "hitbox": {
    "width": 0.6,
    "height": 1.1,
    "fixed": false
  },
  "baseFriendship": 50,
  "evYield": {
    "hp": 0,
    "attack": 0,
    "defence": 0,
    "special_attack": 1,
    "special_defence": 0,
    "speed": 0
  },
  "height": 5,
  "weight": 54,
  "aspects": [],
  "cannotDynamax": false
}