{
    "biomes": "#cobblemon:is_plains",
    "adapt_noise": false,
    "spawn_overrides": {},
    "type": "minecraft:jigsaw",
    "start_pool": "cobblemon:fossils/prehistoric_suspicious_mound",
    "size": 7,
    "step": "surface_structures",
    "start_height": {
        "absolute": -3
    },
    "project_start_to_heightmap": "WORLD_SURFACE_WG",
    "max_distance_from_center": 116,
    "terrain_adaptation": "beard_thin",
    "use_expansion_hack": false
}