{
	"format_version": "1.8.0",
	"animations": {
		"animation.sneasel_hisuian.ground_idle": {
			"loop": true,
			"animation_length": 4,
			"bones": {
				"waist": {
					"rotation": [-1, 0, 0]
				},
				"head": {
					"rotation": [-0.5, 0, 0]
				},
				"arm_right": {
					"rotation": [0, 7.5, -55]
				},
				"arm_right2": {
					"rotation": [0, -72.5, 0]
				},
				"arm_claw_back_right": {
					"rotation": [0, 0, -20]
				},
				"arm_claw_front_right": {
					"rotation": [0, 0, -34]
				},
				"leg_right": {
					"rotation": [-10, 10, 0]
				},
				"torso": {
					"rotation": [2.5, 0, 0]
				},
				"arm_left": {
					"rotation": [0, -15, 52.5]
				},
				"arm_left2": {
					"rotation": [0, 55, 0]
				},
				"arm_claw_back_left": {
					"rotation": [0, 0, 16]
				},
				"arm_claw_front_left": {
					"rotation": [0, 0, 32]
				},
				"leg_right2": {
					"rotation": [18, 0, 0]
				},
				"foot_right": {
					"rotation": [-8, 0, 0]
				},
				"leg_left": {
					"rotation": [-10, -25, -5]
				},
				"leg_left2": {
					"rotation": [18, 0, 0]
				},
				"foot_left": {
					"rotation": [-6.5, 0, 5]
				},
				"body": {
					"position": [0, -0.4, 0]
				}
			}
		},
		"animation.sneasel_hisuian.blink": {
			"animation_length": 0.16667,
			"bones": {
				"eyelid_right": {
					"position": {
						"0.0": [-0.1, 0, -0.1],
						"0.125": [-0.1, 0, -0.1],
						"0.1667": [0, 0, 0]
					}
				},
				"eyelid_left": {
					"position": {
						"0.0": [0.1, 0, -0.1],
						"0.125": [0.1, 0, -0.1],
						"0.1667": [0, 0, 0]
					}
				}
			}
		},
		"animation.sneasel_hisuian.mouth_test": {
			"animation_length": 1.5,
			"bones": {
				"jaw": {
					"position": {
						"0.2917": [0, 0, 0],
						"0.3333": {"pre": [0, 0, 0], "post": [0, 0.01, 0.7]},
						"1.1667": {"pre": [0, 0.01, 0.7], "post": [0, 0.01, 0.7]},
						"1.2083": {"pre": [0, 0.01, 0.7], "post": [0, 0, 0]}
					}
				}
			}
		},
		"animation.sneasel_hisuian.cry": {
			"animation_length": 1,
			"bones": {
				"head": {
					"rotation": {
						"0.0": [0, 0, 0],
						"0.0417": [-1.8, 0, 0],
						"0.0833": [-1.53, 0, 0],
						"0.125": [-1.47, 0, 0],
						"0.1667": [-1.7, 0, 0],
						"0.2083": [-2.95, 0, 0],
						"0.25": [-3.2, 0, 0],
						"0.2917": [-3.07, 0, 0],
						"0.375": [-2.5, 0, 0],
						"0.4583": [-0.17, 0, 0],
						"0.5": [0, 0, 0]
					}
				},
				"jaw": {
					"position": {
						"0.0": [0, 0, 0],
						"0.0417": {"pre": [0, 0, 0], "post": [0, 0, 0.7]},
						"0.4167": {"pre": [0, 0, 0.7], "post": [0, 0, 0.7]},
						"0.4583": {"pre": [0, 0, 0.7], "post": [0, 0, 0]}
					}
				}
			},
			"sound_effects": {
				"0.0": {
					"effect": "sneasel"
				}
			}
		}
	}
}