{
	"format_version": "1.8.0",
	"animations": {
		"animation.tyranitar.ground_idle": {
			"loop": true,
			"bones": {
				"leg_right": {
					"rotation": [0, 15, 0]
				},
				"torso": {
					"rotation": [15, 0, 0]
				},
				"chest": {
					"rotation": [-15, 0, 0]
				},
				"tail": {
					"rotation": [-30, 0, 0]
				},
				"tail2": {
					"rotation": [5, 0, 0]
				},
				"tail3": {
					"rotation": [10, 0, 0]
				},
				"tail4": {
					"rotation": [10, 0, 0]
				},
				"tail5": {
					"rotation": [7.5, 0, 0]
				},
				"neck": {
					"rotation": [12.49216, -0.19734, 0.01124]
				},
				"chest2": {
					"rotation": [0, 0, 0]
				},
				"arm_right": {
					"rotation": [15, -2.5, -20]
				},
				"arm_right2": {
					"rotation": [10.53252, -16.3619, -10.38658]
				},
				"hand_right": {
					"rotation": [8.03252, -16.3619, -10.38658]
				},
				"finger_index_right": {
					"rotation": [0, -17.5, 0]
				},
				"finger_ring_right": {
					"rotation": [0, 15, 0]
				},
				"arm_left": {
					"rotation": [15, 2.5, 20]
				},
				"arm_left2": {
					"rotation": [10.53252, 16.3619, 10.3866]
				},
				"hand_left": {
					"rotation": [8.03252, 16.3619, 10.3866]
				},
				"leg_left": {
					"rotation": [0, -15, 0]
				}
			}
		},
		"animation.tyranitar.blink": {
			"animation_length": 0.16667,
			"bones": {
				"eyelid_left": {
					"position": {
						"0.0": [0.1, 0, 0],
						"0.125": [0.1, 0, 0],
						"0.1667": [0, 0, 0]
					}
				},
				"eyelid_right": {
					"position": {
						"0.0": [-0.1, 0, 0],
						"0.125": [-0.1, 0, 0],
						"0.1667": [0, 0, 0]
					}
				}
			}
		},
		"animation.tyranitar.mouth_open": {
			"animation_length": 3.66667,
			"bones": {
				"chest": {
					"rotation": [10, 0, 0]
				},
				"arm_right": {
					"rotation": [-4.50432, 19.50645, -13.27463]
				},
				"chest2": {
					"rotation": [-7.5, 0, 0]
				},
				"neck": {
					"rotation": [-2.5, 0, 0]
				},
				"neck2": {
					"rotation": [-12.5, 0, 0]
				},
				"torso": {
					"rotation": [35, 0, 0]
				},
				"arm_left": {
					"rotation": [-4.50432, -19.5064, 13.2746]
				},
				"jaw": {
					"rotation": [82.5, 0, 0]
				},
				"head_rotation": {
					"rotation": [-32.5, 0, 0]
				},
				"finger_index_right": {
					"rotation": [0, -15, -30]
				},
				"finger_ring_right": {
					"rotation": [-2.74715, 12.19908, -12.79362]
				},
				"finger_index_left": {
					"rotation": [0, 15, 30]
				},
				"finger_ring_left": {
					"rotation": [-2.74715, -12.19908, 12.79362]
				},
				"tail": {
					"rotation": [-10, 0, 0]
				},
				"tail2": {
					"rotation": [17.5, 0, 0]
				},
				"tail3": {
					"rotation": [20, 0, 0]
				},
				"tail4": {
					"rotation": [10, 0, 0]
				},
				"tail5": {
					"rotation": [15, 0, 0]
				},
				"leg_right": {
					"rotation": [6.58489, 17.05448, 11.43677]
				},
				"foot_right": {
					"rotation": [-2.50954, 4.99523, -10.21865]
				},
				"leg_left": {
					"rotation": [6.58489, -17.05448, -11.43677]
				},
				"foot_left": {
					"rotation": [-2.50954, -4.99523, 10.21865]
				},
				"jaw_hidden": {
					"rotation": [0, 0, 0],
					"position": [0, -3, 0]
				}
			}
		}
	}
}