{
	"format_version": "1.8.0",
	"animations": {
		"animation.grovyle.ground_idle": {
			"loop": true,
			"bones": {
				"torso": {
					"rotation": [10, 0, 0]
				},
				"upper_torso": {
					"rotation": [5, 0, 0]
				},
				"neck": {
					"rotation": [-10, 0, 0]
				},
				"head": {
					"rotation": [2.5, 0, 0]
				},
				"leaf7": {
					"rotation": [12.5, 0, 0]
				},
				"jaw": {
					"rotation": [0, 0, 0]
				},
				"left_upper_arm": {
					"rotation": [2.5, 7.5, 40]
				},
				"left_lower_arm": {
					"rotation": [0, 52.5, 0]
				},
				"left_hand": {
					"rotation": [2.5, 0, 32.5]
				},
				"left_arm_leaves": {
					"rotation": [-25.08377, -4.53051, 2.11751]
				},
				"left_index_finger": {
					"rotation": [0, 0, 10]
				},
				"left_pinky_finger": {
					"rotation": [0, 0, 27.5]
				},
				"left_tail": {
					"rotation": [-10, 12.5, -2.5]
				},
				"left_tail2": {
					"rotation": [-15, 0, 0]
				},
				"left_upper_leg": {
					"rotation": [0, -22.5, 0]
				},
				"left_lower_leg": {
					"rotation": [0, 0, 0]
				},
				"left_foot": {
					"rotation": [0, 0, 0]
				},
				"left_inner_toe": {
					"rotation": [0, 10, 0]
				},
				"left_outer_toe": {
					"rotation": [0, -10, 0]
				},
				"right_tail": {
					"rotation": [-10, -12.5, 2.5]
				},
				"right_upper_leg": {
					"rotation": [0, 22.5, 0]
				},
				"right_lower_leg": {
					"rotation": [0, 0, 0]
				},
				"right_foot": {
					"rotation": [0, 0, 0]
				},
				"right_inner_toe": {
					"rotation": [0, -10, 0]
				},
				"right_outer_toe": {
					"rotation": [0, 10, 0]
				},
				"right_upper_arm": {
					"rotation": [2.5, -7.5, -40]
				},
				"right_lower_arm": {
					"rotation": [0, -52.5, 0]
				},
				"right_hand": {
					"rotation": [2.5, 0, -32.5]
				},
				"right_index_finger": {
					"rotation": [0, 0, -10]
				},
				"right_pinky_finger": {
					"rotation": [0, 0, -27.5]
				},
				"right_arm_leaves": {
					"rotation": [-25.08377, 4.53051, -2.11751]
				},
				"right_tail2": {
					"rotation": [-15, 0, 0]
				},
				"left_index_finger2": {
					"rotation": [0, 0, 17.5]
				},
				"left_pinky_finger2": {
					"rotation": [0, 0, 22.5]
				},
				"right_index_finger2": {
					"rotation": [0, 0, -17.5]
				},
				"right_pinky_finger2": {
					"rotation": [0, 0, -22.5]
				}
			}
		},
		"animation.grovyle.test2": {
			"loop": true,
			"bones": {
				"torso": {
					"rotation": [-5, 0, 0]
				},
				"upper_torso": {
					"rotation": [2.5, 0, 0]
				},
				"neck": {
					"rotation": [20, 0, 0]
				},
				"head": {
					"rotation": [10, 0, 0]
				},
				"leaf7": {
					"rotation": [12.5, 0, 0]
				},
				"jaw": {
					"rotation": [0, 0, 0]
				},
				"left_upper_arm": {
					"rotation": [-52.5, 5, 27.5]
				},
				"left_lower_arm": {
					"rotation": [0, 65, 0]
				},
				"left_hand": {
					"rotation": [2.38443, -0.75155, 49.98436]
				},
				"left_arm_leaves": {
					"rotation": [-10, -17.5, 0]
				},
				"left_index_finger": {
					"rotation": [0, 0, 2.5]
				},
				"left_pinky_finger": {
					"rotation": [0, 0, 5]
				},
				"left_tail": {
					"rotation": [-15, 12.5, -2.5]
				},
				"left_tail2": {
					"rotation": [7.5, 0, 0]
				},
				"left_upper_leg": {
					"rotation": [0, -22.5, 0]
				},
				"left_lower_leg": {
					"rotation": [0, 0, 0]
				},
				"left_foot": {
					"rotation": [0, 0, 0]
				},
				"left_inner_toe": {
					"rotation": [0, 10, 0]
				},
				"left_outer_toe": {
					"rotation": [0, -10, 0]
				},
				"right_tail": {
					"rotation": [-15, -12.5, 2.5]
				},
				"right_upper_leg": {
					"rotation": [0, 22.5, 0]
				},
				"right_lower_leg": {
					"rotation": [0, 0, 0]
				},
				"right_foot": {
					"rotation": [0, 0, 0]
				},
				"right_inner_toe": {
					"rotation": [0, -10, 0]
				},
				"right_outer_toe": {
					"rotation": [0, 10, 0]
				},
				"right_upper_arm": {
					"rotation": [-52.5, -5, -27.5]
				},
				"right_lower_arm": {
					"rotation": [0, -65, 0]
				},
				"right_hand": {
					"rotation": [2.38443, 0.75155, -49.98436]
				},
				"right_index_finger": {
					"rotation": [0, 0, -2.5]
				},
				"right_pinky_finger": {
					"rotation": [0, 0, -5]
				},
				"right_arm_leaves": {
					"rotation": [-10, 17.5, 0]
				},
				"right_tail2": {
					"rotation": [7.5, 0, 0]
				},
				"left_index_finger2": {
					"rotation": [0, 0, 65]
				},
				"left_pinky_finger2": {
					"rotation": [0, 0, 87.5]
				},
				"right_index_finger2": {
					"rotation": [0, 0, -65]
				},
				"right_pinky_finger2": {
					"rotation": [0, 0, -87.5]
				}
			}
		},
		"animation.grovyle.test3": {
			"loop": true,
			"bones": {
				"torso": {
					"rotation": [45.38165, -3.51814, -7.08167]
				},
				"upper_torso": {
					"rotation": [-9.97857, 3.32943, 4.4913]
				},
				"neck": {
					"rotation": [-20.01754, 2.34914, -0.85553]
				},
				"head": {
					"rotation": [-10, 0, 0]
				},
				"leaf7": {
					"rotation": [22.5, 0, 0]
				},
				"jaw": {
					"rotation": [42.5, 0, 0]
				},
				"left_upper_arm": {
					"rotation": [-12.58328, 9.94037, 39.45082]
				},
				"left_lower_arm": {
					"rotation": [0, 82.5, 0]
				},
				"left_hand": {
					"rotation": [7.5, 0, 32.5]
				},
				"left_arm_leaves": {
					"rotation": [-21.78282, -11.4487, 11.10461]
				},
				"left_index_finger": {
					"rotation": [0, 0, 10]
				},
				"left_pinky_finger": {
					"rotation": [0, 0, 22.5]
				},
				"left_tail": {
					"rotation": [-17.99085, 11.53327, -4.85721]
				},
				"left_tail2": {
					"rotation": [-15, 0, 0]
				},
				"left_upper_leg": {
					"rotation": [-37.5, -22.5, 0],
					"position": [0.5, 0.5, -1]
				},
				"left_lower_leg": {
					"rotation": [5, 0, 0]
				},
				"left_foot": {
					"rotation": [0, 0, 0]
				},
				"left_inner_toe": {
					"rotation": [10, 10, 0]
				},
				"left_outer_toe": {
					"rotation": [20, -10, 0]
				},
				"right_tail": {
					"rotation": [-28.32455, -16.15901, -4.25872]
				},
				"right_upper_leg": {
					"rotation": [38, 7.5, 2.5],
					"position": [0, -0.5, -0.5]
				},
				"right_lower_leg": {
					"rotation": [5, 0, 0]
				},
				"right_foot": {
					"rotation": [27.5, 0, 0]
				},
				"right_inner_toe": {
					"rotation": [-24.71447, -5.46269, -2.12052],
					"position": [0, -0.1, 0.6]
				},
				"right_outer_toe": {
					"rotation": [-24.71447, 5.46269, 2.12052],
					"position": [0, -0.1, 0.6]
				},
				"right_upper_arm": {
					"rotation": [-14.26018, -29.40676, -34.54418]
				},
				"right_lower_arm": {
					"rotation": [0, -70, 0]
				},
				"right_hand": {
					"rotation": [7.5, 0, -32.5]
				},
				"right_index_finger": {
					"rotation": [0, 0, -10]
				},
				"right_pinky_finger": {
					"rotation": [0, 0, -22.5]
				},
				"right_arm_leaves": {
					"rotation": [-26.39218, 18.05776, -8.74472]
				},
				"right_tail2": {
					"rotation": [-15, 0, 0]
				},
				"body": {
					"position": [0, 1.75, 0]
				},
				"leaf3": {
					"rotation": [2.5, 0, 0]
				},
				"leaf4": {
					"rotation": [7.5, 0, 0]
				},
				"leaf5": {
					"rotation": [5, 0, 0]
				},
				"leaf6": {
					"rotation": [5, 0, 0]
				},
				"left_back_toe": {
					"rotation": [-5, 0, 0]
				},
				"right_back_toe": {
					"rotation": [-10, 0, 0]
				},
				"left_outer_toe2": {
					"rotation": [10, 0, 0]
				},
				"left_inner_toe2": {
					"rotation": [10, 0, 0]
				},
				"right_inner_toe2": {
					"rotation": [-45, 0, 0],
					"position": [0, -0.55, 1.4]
				},
				"right_outer_toe2": {
					"rotation": [-45, 0, 0],
					"position": [0, -0.55, 1.4]
				},
				"left_leaf1": {
					"rotation": [15, 0, 0]
				},
				"left_leaf2": {
					"rotation": [5.76917, -1.99557, 14.05033]
				},
				"left_leaf3": {
					"rotation": [10, 0, 0]
				},
				"right_leaf1": {
					"rotation": [5, 0, 0]
				},
				"right_leaf2": {
					"rotation": [2.5, 0, 0]
				},
				"left_index_finger2": {
					"rotation": [0, 0, 22.5]
				},
				"left_pinky_finger2": {
					"rotation": [0, 0, 30]
				},
				"right_index_finger2": {
					"rotation": [0, 0, -22.5]
				},
				"right_pinky_finger2": {
					"rotation": [0, 0, -30]
				}
			}
		},
		"animation.grovyle.blink": {
			"animation_length": 0.16667,
			"bones": {
				"eyelid_right": {
					"position": {
						"0.0": [-0.1, 0, 0],
						"0.125": [-0.1, 0, 0],
						"0.1667": [0, 0, 0]
					}
				},
				"eyelid_left": {
					"position": {
						"0.0": [0.1, 0, 0],
						"0.125": [0.1, 0, 0],
						"0.1667": [0, 0, 0]
					}
				}
			}
		}
	}
}